Preprocesamiento de Datos Modelo de Clasificación Prevención de Fraude
…
Data$C <- ifelse(is.na(Data$C), median(Data$C, na.rm = TRUE), Data$C)
summary(Data$C)

##    Min. 1st Qu.  Median    Mean 3rd Qu.    Max. 
##       0    1920    6173   32974   18570  617324

Nota: Observemos que luego del reemplazo la media de los datos no se afectó y la distribución de la variable mejoró.

Para el caso de la variable K, en donde la cantidad de datos faltantes supera el 75% de sus datos, opté por no tener en cuenta esa variable en el análisis, dado que no aportaria confiabilidad.

require(dplyr)
Data <- select(Data, -K)
Data

## # A tibble: 16,880 x 20
##        A     B     C     D     E     F     G     H     I J         L     M     N
##    <dbl> <dbl> <dbl> <dbl> <dbl> <dbl> <dbl> <dbl> <dbl> <chr> <dbl> <dbl> <dbl>
##  1     0    10 50257     0     0     0     0     0     0 UY        0     3     1
##  2     0    10 29014     0     0     0     0     0     0 UY        0     1     1
##  3     0     7    92     0     1     0     0     0     1 UY        0     3     1
##  4     9    16 50269     0     0     0     0     0     0 UY        0     3     1
##  5     0     8  8180     0     0     0     0     0     0 UY        0     1     1
##  6     1    12  1141     0     0     0     0     0     0 UY        0     1     1
##  7    10    18  4560     0     0     0     0     0     0 UY        0     3     1
##  8     0    10    38     0     0     0     0     0     0 UY        0     1     1
##  9     0    14  3790     0     0     0     0     0     0 UY        0     1     1
## 10     0    16 23210     0     0     0     0     0     0 UY        1     1     1
## # ... with 16,870 more rows, and 7 more variables: O <dbl>, P <dbl>, Q <dbl>,
## #   R <dbl>, S <dbl>, Monto <dbl>, Fraude <int>
…
